<svg width="19" height="19" viewBox="0 0 19 19" fill="none" xmlns="http://www.w3.org/2000/svg">
<rect y="3.05176e-05" width="19" height="19" rx="2" fill="black"/>
<path d="M5.752 2.32003C6.152 2.32003 6.496 2.3787 6.784 2.49603C7.072 2.61336 7.30933 2.7707 7.496 2.96803C7.688 3.16536 7.82933 3.39736 7.92 3.66403C8.016 3.92536 8.072 4.20003 8.088 4.48803C8.09867 4.71736 8.104 4.95736 8.104 5.20803C8.104 5.4587 8.09867 5.69336 8.088 5.91203C8.072 6.20003 8.016 6.47736 7.92 6.74403C7.82933 7.00536 7.688 7.2347 7.496 7.43203C7.30933 7.62936 7.072 7.7867 6.784 7.90403C6.496 8.02136 6.152 8.08003 5.752 8.08003C5.352 8.08003 5.008 8.02136 4.72 7.90403C4.432 7.7867 4.192 7.62936 4 7.43203C3.81333 7.2347 3.672 7.00536 3.576 6.74403C3.48533 6.47736 3.432 6.20003 3.416 5.91203C3.40533 5.69336 3.4 5.4587 3.4 5.20803C3.4 4.95736 3.40533 4.71736 3.416 4.48803C3.432 4.20003 3.48533 3.92536 3.576 3.66403C3.672 3.39736 3.81333 3.16536 4 2.96803C4.192 2.7707 4.432 2.61336 4.72 2.49603C5.008 2.3787 5.352 2.32003 5.752 2.32003ZM6.608 5.87203C6.62933 5.4187 6.62933 4.9707 6.608 4.52803C6.59733 4.3947 6.576 4.27203 6.544 4.16003C6.51733 4.04803 6.472 3.95203 6.408 3.87203C6.344 3.7867 6.25867 3.72003 6.152 3.67203C6.04533 3.62403 5.912 3.60003 5.752 3.60003C5.592 3.60003 5.45867 3.62403 5.352 3.67203C5.24533 3.72003 5.16 3.7867 5.096 3.87203C5.032 3.95203 4.984 4.04803 4.952 4.16003C4.92 4.27203 4.90133 4.3947 4.896 4.52803C4.86933 4.9707 4.86933 5.4187 4.896 5.87203C4.90133 6.00536 4.91733 6.12803 4.944 6.24003C4.976 6.35203 5.024 6.4507 5.088 6.53603C5.15733 6.61603 5.24533 6.68003 5.352 6.72803C5.45867 6.77603 5.592 6.80003 5.752 6.80003C5.912 6.80003 6.04533 6.77603 6.152 6.72803C6.25867 6.68003 6.344 6.61603 6.408 6.53603C6.47733 6.4507 6.52533 6.35203 6.552 6.24003C6.584 6.12803 6.60267 6.00536 6.608 5.87203ZM11.0417 4.20003C11.0044 4.15203 10.9911 4.0987 11.0017 4.04003C11.0124 3.98136 11.0417 3.93336 11.0897 3.89603L12.8097 2.57603C12.8524 2.54403 12.9031 2.5067 12.9617 2.46403C13.0257 2.42136 13.0977 2.40003 13.1777 2.40003H14.1537C14.2124 2.40003 14.2631 2.42136 14.3057 2.46403C14.3484 2.5067 14.3697 2.55736 14.3697 2.61603V7.78403C14.3697 7.8427 14.3484 7.89336 14.3057 7.93603C14.2631 7.9787 14.2124 8.00003 14.1537 8.00003H13.1057C13.0471 8.00003 12.9964 7.9787 12.9537 7.93603C12.9111 7.89336 12.8897 7.8427 12.8897 7.78403V4.28803L11.9377 5.00803C11.8897 5.04536 11.8364 5.06136 11.7777 5.05603C11.7191 5.04536 11.6711 5.01603 11.6337 4.96803L11.0417 4.20003ZM7.848 12.2C7.848 12.3547 7.832 12.504 7.8 12.648C7.768 12.792 7.712 12.9334 7.632 13.072C7.55733 13.2054 7.456 13.3387 7.328 13.472C7.20533 13.6054 7.05333 13.7387 6.872 13.872L5.752 14.72H7.76C7.81867 14.72 7.86933 14.7414 7.912 14.784C7.95467 14.8267 7.976 14.8774 7.976 14.936V15.784C7.976 15.8427 7.95467 15.8934 7.912 15.936C7.86933 15.9787 7.81867 16 7.76 16H3.536C3.47733 16 3.42667 15.9787 3.384 15.936C3.34133 15.8934 3.32 15.8427 3.32 15.784V15.096C3.32 15.0107 3.336 14.9254 3.368 14.84C3.40533 14.7547 3.46667 14.6827 3.552 14.624L5.944 12.912C6.13067 12.7734 6.248 12.648 6.296 12.536C6.344 12.4187 6.368 12.3067 6.368 12.2C6.368 12.1627 6.36 12.112 6.344 12.048C6.33333 11.9787 6.304 11.912 6.256 11.848C6.208 11.7787 6.13867 11.72 6.048 11.672C5.96267 11.624 5.84533 11.6 5.696 11.6C5.54667 11.6 5.424 11.6267 5.328 11.68C5.23733 11.728 5.16533 11.784 5.112 11.848C5.064 11.912 5.02667 11.9787 5 12.048C4.97867 12.112 4.96267 12.16 4.952 12.192C4.92533 12.2667 4.88267 12.3174 4.824 12.344C4.77067 12.3654 4.70667 12.376 4.632 12.376H3.648C3.6 12.376 3.55733 12.36 3.52 12.328C3.488 12.2907 3.472 12.248 3.472 12.2C3.47733 11.976 3.52533 11.7547 3.616 11.536C3.70667 11.312 3.84267 11.1094 4.024 10.928C4.21067 10.7467 4.44 10.6 4.712 10.488C4.98933 10.376 5.31467 10.32 5.688 10.32C6.04 10.32 6.34933 10.3734 6.616 10.48C6.888 10.5814 7.11467 10.72 7.296 10.896C7.47733 11.0667 7.61333 11.2667 7.704 11.496C7.8 11.72 7.848 11.9547 7.848 12.2ZM15.0941 10.4C15.1527 10.4 15.2034 10.4214 15.2461 10.464C15.2887 10.5067 15.3101 10.5574 15.3101 10.616V11.464C15.3101 11.5227 15.2914 11.576 15.2541 11.624C15.2167 11.672 15.1821 11.712 15.1501 11.744L14.1821 12.72C14.5981 12.8267 14.9367 13.008 15.1981 13.264C15.4594 13.5147 15.5901 13.848 15.5901 14.264C15.5901 14.8667 15.3821 15.32 14.9661 15.624C14.5501 15.928 13.9687 16.08 13.2221 16.08C12.8381 16.08 12.4967 16.0347 12.1981 15.944C11.9047 15.8534 11.6567 15.7334 11.4541 15.584C11.2514 15.4347 11.0941 15.2667 10.9821 15.08C10.8754 14.888 10.8194 14.6934 10.8141 14.496C10.8141 14.448 10.8301 14.408 10.8621 14.376C10.8994 14.3387 10.9421 14.32 10.9901 14.32H11.9981C12.1101 14.32 12.1954 14.3467 12.2541 14.4C12.3127 14.448 12.3767 14.5014 12.4461 14.56C12.5207 14.6187 12.6141 14.6747 12.7261 14.728C12.8434 14.776 13.0087 14.8 13.2221 14.8C13.4781 14.8 13.6887 14.7574 13.8541 14.672C14.0247 14.5867 14.1101 14.4507 14.1101 14.264C14.1101 14.0774 14.0247 13.9414 13.8541 13.856C13.6887 13.7707 13.4781 13.728 13.2221 13.728H12.5581C12.4994 13.728 12.4487 13.7067 12.4061 13.664C12.3634 13.6214 12.3421 13.5707 12.3421 13.512V12.824C12.3421 12.7654 12.3607 12.712 12.3981 12.664C12.4354 12.616 12.4727 12.5734 12.5101 12.536L13.3581 11.68H11.2701C11.2114 11.68 11.1607 11.6587 11.1181 11.616C11.0754 11.5734 11.0541 11.5227 11.0541 11.464V10.616C11.0541 10.5574 11.0754 10.5067 11.1181 10.464C11.1607 10.4214 11.2114 10.4 11.2701 10.4H15.0941Z" fill="white"/>
</svg>
