<svg width="61" height="61" viewBox="0 0 61 61" fill="none" xmlns="http://www.w3.org/2000/svg">
<g opacity="0.5">
<path fill-rule="evenodd" clip-rule="evenodd" d="M55.2812 3.8125H5.71875C4.66596 3.8125 3.8125 4.66596 3.8125 5.71875V55.2812C3.8125 56.334 4.66596 57.1875 5.71875 57.1875H55.2812C56.334 57.1875 57.1875 56.334 57.1875 55.2812V5.71875C57.1875 4.66596 56.334 3.8125 55.2812 3.8125ZM5.71875 0C2.56037 0 0 2.56037 0 5.71875V55.2812C0 58.4396 2.56037 61 5.71875 61H55.2812C58.4396 61 61 58.4396 61 55.2812V5.71875C61 2.56037 58.4396 0 55.2812 0H5.71875Z" fill="white"/>
<path fill-rule="evenodd" clip-rule="evenodd" d="M11.9141 57.1875V3.8125H14.7734V57.1875H11.9141Z" fill="white"/>
<path fill-rule="evenodd" clip-rule="evenodd" d="M29.0703 57.1875V3.8125H31.9297V57.1875H29.0703Z" fill="white"/>
<path fill-rule="evenodd" clip-rule="evenodd" d="M46.2266 57.1875V3.8125H49.0859V57.1875H46.2266Z" fill="white"/>
<path d="M5.71875 20.0156C5.71875 17.3836 7.85239 15.25 10.4844 15.25H16.2031C18.8351 15.25 20.9688 17.3836 20.9688 20.0156C20.9688 22.6476 18.8351 24.7812 16.2031 24.7812H10.4844C7.85239 24.7812 5.71875 22.6476 5.71875 20.0156Z" fill="#EEEEEE"/>
<path fill-rule="evenodd" clip-rule="evenodd" d="M16.2031 18.1094H10.4844C9.43158 18.1094 8.57812 18.9628 8.57812 20.0156C8.57812 21.0684 9.43158 21.9219 10.4844 21.9219H16.2031C17.2559 21.9219 18.1094 21.0684 18.1094 20.0156C18.1094 18.9628 17.2559 18.1094 16.2031 18.1094ZM10.4844 15.25C7.85239 15.25 5.71875 17.3836 5.71875 20.0156C5.71875 22.6476 7.85239 24.7812 10.4844 24.7812H16.2031C18.8351 24.7812 20.9688 22.6476 20.9688 20.0156C20.9688 17.3836 18.8351 15.25 16.2031 15.25H10.4844Z" fill="white"/>
<path d="M5.71875 37.1719C5.71875 34.5399 7.85239 32.4062 10.4844 32.4062H16.2031C18.8351 32.4062 20.9688 34.5399 20.9688 37.1719C20.9688 39.8039 18.8351 41.9375 16.2031 41.9375H10.4844C7.85239 41.9375 5.71875 39.8039 5.71875 37.1719Z" fill="#EEEEEE"/>
<path fill-rule="evenodd" clip-rule="evenodd" d="M16.2031 35.2656H10.4844C9.43158 35.2656 8.57812 36.1191 8.57812 37.1719C8.57812 38.2247 9.43158 39.0781 10.4844 39.0781H16.2031C17.2559 39.0781 18.1094 38.2247 18.1094 37.1719C18.1094 36.1191 17.2559 35.2656 16.2031 35.2656ZM10.4844 32.4062C7.85239 32.4062 5.71875 34.5399 5.71875 37.1719C5.71875 39.8039 7.85239 41.9375 10.4844 41.9375H16.2031C18.8351 41.9375 20.9688 39.8039 20.9688 37.1719C20.9688 34.5399 18.8351 32.4062 16.2031 32.4062H10.4844Z" fill="white"/>
<path d="M5.71875 46.7031C5.71875 44.0711 7.85239 41.9375 10.4844 41.9375H16.2031C18.8351 41.9375 20.9688 44.0711 20.9688 46.7031C20.9688 49.3351 18.8351 51.4688 16.2031 51.4688H10.4844C7.85239 51.4688 5.71875 49.3351 5.71875 46.7031Z" fill="#EEEEEE"/>
<path fill-rule="evenodd" clip-rule="evenodd" d="M16.2031 44.7969H10.4844C9.43158 44.7969 8.57812 45.6503 8.57812 46.7031C8.57812 47.7559 9.43158 48.6094 10.4844 48.6094H16.2031C17.2559 48.6094 18.1094 47.7559 18.1094 46.7031C18.1094 45.6503 17.2559 44.7969 16.2031 44.7969ZM10.4844 41.9375C7.85239 41.9375 5.71875 44.0711 5.71875 46.7031C5.71875 49.3351 7.85239 51.4688 10.4844 51.4688H16.2031C18.8351 51.4688 20.9688 49.3351 20.9688 46.7031C20.9688 44.0711 18.8351 41.9375 16.2031 41.9375H10.4844Z" fill="white"/>
<path d="M40.0312 27.6406C40.0312 25.0086 42.1649 22.875 44.7969 22.875H50.5156C53.1476 22.875 55.2812 25.0086 55.2812 27.6406C55.2812 30.2726 53.1476 32.4062 50.5156 32.4062H44.7969C42.1649 32.4062 40.0312 30.2726 40.0312 27.6406Z" fill="#EEEEEE"/>
<path fill-rule="evenodd" clip-rule="evenodd" d="M50.5156 25.7344H44.7969C43.7441 25.7344 42.8906 26.5878 42.8906 27.6406C42.8906 28.6934 43.7441 29.5469 44.7969 29.5469H50.5156C51.5684 29.5469 52.4219 28.6934 52.4219 27.6406C52.4219 26.5878 51.5684 25.7344 50.5156 25.7344ZM44.7969 22.875C42.1649 22.875 40.0312 25.0086 40.0312 27.6406C40.0312 30.2726 42.1649 32.4062 44.7969 32.4062H50.5156C53.1476 32.4062 55.2812 30.2726 55.2812 27.6406C55.2812 25.0086 53.1476 22.875 50.5156 22.875H44.7969Z" fill="white"/>
<path d="M40.0312 52.4219C40.0312 49.7899 42.1649 47.6562 44.7969 47.6562H50.5156C53.1476 47.6562 55.2812 49.7899 55.2812 52.4219C55.2812 55.0539 53.1476 57.1875 50.5156 57.1875H44.7969C42.1649 57.1875 40.0312 55.0539 40.0312 52.4219Z" fill="#EEEEEE"/>
<path fill-rule="evenodd" clip-rule="evenodd" d="M50.5156 50.5156H44.7969C43.7441 50.5156 42.8906 51.3691 42.8906 52.4219C42.8906 53.4747 43.7441 54.3281 44.7969 54.3281H50.5156C51.5684 54.3281 52.4219 53.4747 52.4219 52.4219C52.4219 51.3691 51.5684 50.5156 50.5156 50.5156ZM44.7969 47.6562C42.1649 47.6562 40.0312 49.7899 40.0312 52.4219C40.0312 55.0539 42.1649 57.1875 44.7969 57.1875H50.5156C53.1476 57.1875 55.2812 55.0539 55.2812 52.4219C55.2812 49.7899 53.1476 47.6562 50.5156 47.6562H44.7969Z" fill="white"/>
<path d="M40.0312 8.57812C40.0312 5.94614 42.1649 3.8125 44.7969 3.8125H50.5156C53.1476 3.8125 55.2812 5.94614 55.2812 8.57812C55.2812 11.2101 53.1476 13.3438 50.5156 13.3438H44.7969C42.1649 13.3438 40.0312 11.2101 40.0312 8.57812Z" fill="#EEEEEE"/>
<path fill-rule="evenodd" clip-rule="evenodd" d="M50.5156 6.67188H44.7969C43.7441 6.67188 42.8906 7.52533 42.8906 8.57812C42.8906 9.63092 43.7441 10.4844 44.7969 10.4844H50.5156C51.5684 10.4844 52.4219 9.63092 52.4219 8.57812C52.4219 7.52533 51.5684 6.67188 50.5156 6.67188ZM44.7969 3.8125C42.1649 3.8125 40.0312 5.94614 40.0312 8.57812C40.0312 11.2101 42.1649 13.3438 44.7969 13.3438H50.5156C53.1476 13.3438 55.2812 11.2101 55.2812 8.57812C55.2812 5.94614 53.1476 3.8125 50.5156 3.8125H44.7969Z" fill="white"/>
<path d="M22.875 27.6406C22.875 25.0086 25.0086 22.875 27.6406 22.875H33.3594C35.9914 22.875 38.125 25.0086 38.125 27.6406C38.125 30.2726 35.9914 32.4062 33.3594 32.4062H27.6406C25.0086 32.4062 22.875 30.2726 22.875 27.6406Z" fill="#EEEEEE"/>
<path fill-rule="evenodd" clip-rule="evenodd" d="M33.3594 25.7344H27.6406C26.5878 25.7344 25.7344 26.5878 25.7344 27.6406C25.7344 28.6934 26.5878 29.5469 27.6406 29.5469H33.3594C34.4122 29.5469 35.2656 28.6934 35.2656 27.6406C35.2656 26.5878 34.4122 25.7344 33.3594 25.7344ZM27.6406 22.875C25.0086 22.875 22.875 25.0086 22.875 27.6406C22.875 30.2726 25.0086 32.4062 27.6406 32.4062H33.3594C35.9914 32.4062 38.125 30.2726 38.125 27.6406C38.125 25.0086 35.9914 22.875 33.3594 22.875H27.6406Z" fill="white"/>
<path d="M22.875 8.57812C22.875 5.94614 25.0086 3.8125 27.6406 3.8125H33.3594C35.9914 3.8125 38.125 5.94614 38.125 8.57812C38.125 11.2101 35.9914 13.3438 33.3594 13.3438H27.6406C25.0086 13.3438 22.875 11.2101 22.875 8.57812Z" fill="#EEEEEE"/>
<path fill-rule="evenodd" clip-rule="evenodd" d="M33.3594 6.67188H27.6406C26.5878 6.67188 25.7344 7.52533 25.7344 8.57812C25.7344 9.63092 26.5878 10.4844 27.6406 10.4844H33.3594C34.4122 10.4844 35.2656 9.63092 35.2656 8.57812C35.2656 7.52533 34.4122 6.67188 33.3594 6.67188ZM27.6406 3.8125C25.0086 3.8125 22.875 5.94614 22.875 8.57812C22.875 11.2101 25.0086 13.3438 27.6406 13.3438H33.3594C35.9914 13.3438 38.125 11.2101 38.125 8.57812C38.125 5.94614 35.9914 3.8125 33.3594 3.8125H27.6406Z" fill="white"/>
<path d="M22.875 37.1719C22.875 34.5399 25.0086 32.4062 27.6406 32.4062H33.3594C35.9914 32.4062 38.125 34.5399 38.125 37.1719C38.125 39.8039 35.9914 41.9375 33.3594 41.9375H27.6406C25.0086 41.9375 22.875 39.8039 22.875 37.1719Z" fill="#EEEEEE"/>
<path fill-rule="evenodd" clip-rule="evenodd" d="M33.3594 35.2656H27.6406C26.5878 35.2656 25.7344 36.1191 25.7344 37.1719C25.7344 38.2247 26.5878 39.0781 27.6406 39.0781H33.3594C34.4122 39.0781 35.2656 38.2247 35.2656 37.1719C35.2656 36.1191 34.4122 35.2656 33.3594 35.2656ZM27.6406 32.4062C25.0086 32.4062 22.875 34.5399 22.875 37.1719C22.875 39.8039 25.0086 41.9375 27.6406 41.9375H33.3594C35.9914 41.9375 38.125 39.8039 38.125 37.1719C38.125 34.5399 35.9914 32.4062 33.3594 32.4062H27.6406Z" fill="white"/>
</g>
</svg>
